Sentiment Analysis - Ebola
…
#geom_point()

concerns_by_day

## # A tibble: 67 x 3
##    Trig_date  mean_sent std_sent
##    <date>         <dbl>    <dbl>
##  1 2014-10-12   -0.285   NaN    
##  2 2014-11-12   -0.221     0.265
##  3 2014-11-15    0       NaN    
##  4 2014-11-24   -0.192     0.179
##  5 2014-11-25   -0.0712    0.255
##  6 2014-11-26   -0.0899    0.238
##  7 2014-11-27   -0.0691    0.220
##  8 2014-11-28   -0.0978    0.263
##  9 2014-12-02   -0.0912    0.228
## 10 2014-12-03   -0.0530    0.258
## # ... with 57 more rows
…
4.1 Mean sentiment by months across districts

concerns_dis_mon <- sentiment_concerns %>%
  dplyr::select(Trig_date,District, ave_sentiment)

concerns_dis_mon$Trig_date <- as.Date(as.yearmon(concerns_dis_mon$Trig_date))
#concerns_dis_mon$Trig_date <- as.Date(concerns_dis_mon$Trig_date, "%b %Y")

concerns_dis_mon <- concerns_dis_mon %>%
  group_by(District,Trig_date) %>%
  summarise(mean_sent = mean(ave_sentiment, na.rm = TRUE))

concerns_dis_mon

## # A tibble: 30 x 3
## # Groups:   District [11]
##    District Trig_date  mean_sent
##    <chr>    <date>         <dbl>
##  1 Bo       2014-11-01   -0.268 
##  2 Bo       2014-12-01   -0.0802
##  3 Bo       2015-01-01   -0.0589
##  4 Bombali  2014-12-01   -0.0473
##  5 Bombali  2015-01-01   -0.0705
##  6 Bonthe   2015-01-01   -0.0969
##  7 Bonthe   2015-02-01   -0.133 
##  8 Kailahun 2014-10-01   -0.285 
##  9 Kailahun 2014-11-01    0.245 
## 10 Kailahun 2014-12-01   -0.0483
## # ... with 20 more rows
…
concerns_dis_week <- sentiment_concerns %>%
  dplyr::select(Trig_date,District, ave_sentiment)

concerns_dis_week$Trig_week <- as.Date(cut(concerns_dis_week$Trig_date,breaks = "week",start.on.monday = FALSE))

concerns_dis_week <- concerns_dis_week %>%
  group_by(District,Trig_week) %>%
  summarise(mean_sent = mean(ave_sentiment, na.rm = TRUE))

concerns_dis_week

## # A tibble: 56 x 3
## # Groups:   District [11]
##    District Trig_week  mean_sent
##    <chr>    <date>         <dbl>
##  1 Bo       2014-11-09   -0.276 
##  2 Bo       2014-11-23   -0.212 
##  3 Bo       2014-12-07   -0.0813
##  4 Bo       2014-12-14   -0.0810
##  5 Bo       2014-12-21    0.254 
##  6 Bo       2014-12-28    0.191 
##  7 Bo       2015-01-18   -0.0598
##  8 Bo       2015-01-25    0     
##  9 Bombali  2014-11-30   -0.0594
## 10 Bombali  2014-12-07   -0.0349
## # ... with 46 more rows
…
